0	nl_bookI_s3
1	nl_bookII_s3
2	nl_bookIII_s3
3	nl_cereal_s3
4	nl_juice_s3
5	nl_mugI_s3
6	nl_mugII_s3
7	nl_mugIII_s3
8	nl_bookI_s4
9	nl_bookII_s4
10	nl_bookIII_s4
11	nl_cereal_s4
12	nl_juice_s4
13	nl_mugI_s4
14	nl_mugII_s4
15	nl_mugIII_s4
16	nl_bus
17	nl_highlighting
18	nl_letter
19	nl_newspaper