   -0.074513339	   -0.005291618	   -0.104389331	    0.076115163	   -0.069810017	   -0.035389852	   -0.111726849	   -0.011451911
    0.127929097	    0.009251289	    0.189353719	    0.112922489	    0.125471859	    0.062556823	    0.190377911	    0.024436529
    0.001939891	    0.003259114	   -0.001850238	   -0.001980207	    0.001886501	   -0.000773533	   -0.000912759	    0.002217055
    0.001828928	    0.002561137	   -0.001500268	   -0.001404554	    0.001873392	   -0.000520217	   -0.001685632	    0.002034433
    0.002026879	    0.002159848	   -0.001265778	   -0.001305956	    0.001963347	   -0.000481549	   -0.001126523	    0.001222564
    0.001932613	    0.002461195	   -0.001409264	   -0.001693005	    0.001775316	   -0.000431324	   -0.000329493	    0.002602469
    0.001733826	    0.002857456	   -0.001707354	   -0.001696238	    0.001975549	   -0.000532492	   -0.000721460	    0.002212760
    0.001538410	    0.003061343	   -0.001845468	   -0.001988449	    0.001688931	   -0.000770094	   -0.000512180	    0.003007320
    0.001174604	    0.005063289	   -0.002986351	   -0.003823698	    0.001437784	   -0.001619529	    0.000059819	    0.002595643
    0.000919439	    0.008565783	   -0.005088178	   -0.006235624	    0.001605567	   -0.003328207	    0.000969618	    0.000371971
    0.001670832	    0.012282418	   -0.007362906	   -0.008038409	    0.001591436	   -0.005186976	   -0.001594897	   -0.002145267
    0.001888398	    0.013690321	   -0.008501369	   -0.008899352	    0.001331756	   -0.005931791	   -0.001405211	   -0.002148991
    0.001672089	    0.013908542	   -0.008192520	   -0.008619734	    0.001248641	   -0.005910792	   -0.000500602	   -0.004176764
    0.001130422	    0.009587102	   -0.005897188	   -0.006613273	    0.001249080	   -0.004124998	    0.000140373	   -0.002002153
    0.000953655	    0.004075982	   -0.002553708	   -0.002576162	    0.001134862	   -0.001474751	   -0.000946955	    0.000622262
    0.001410265	    0.001172211	   -0.000570075	   -0.000548995	    0.001367395	   -0.000080446	   -0.000728385	    0.002012624
    0.001500652	    0.000463444	   -0.000374538	   -0.000066547	    0.001835002	    0.000115615	   -0.000924747	    0.001816233
    0.001810289	    0.000962895	   -0.000316860	   -0.000637531	    0.001843671	    0.000270320	   -0.000512196	    0.003204987
    0.001897312	    0.000658824	   -0.000215770	    0.000037925	    0.002126726	    0.000372353	   -0.001484825	    0.002625747
    0.001993858	    0.000554314	   -0.000078563	    0.000231184	    0.002317982	    0.000509672	   -0.000721682	    0.002410047
    0.002291428	    0.000656772	   -0.000168976	    0.000333720	    0.002223103	    0.000419129	   -0.001293650	    0.002620751
    0.002097573	    0.000462758	   -0.000119974	    0.000041481	    0.001930974	    0.000370114	   -0.001492785	    0.002225928
    0.001795425	    0.000763279	   -0.000029352	    0.000130849	    0.001840922	    0.000460453	   -0.000138519	    0.002797845
    0.001997915	    0.000155844	   -0.000023831	   -0.000057518	    0.002213320	    0.000564404	   -0.000122551	    0.003595285
    0.001794760	    0.000360226	   -0.000023817	    0.000131254	    0.002025314	    0.000564419	   -0.000514563	    0.003204729
    0.001797257	    0.000554427	   -0.000074514	    0.000035240	    0.002317677	    0.000513721	   -0.000713553	    0.002809642
    0.002288978	    0.000462658	   -0.000118298	    0.000429820	    0.001930788	    0.000469749	   -0.001094910	    0.003015510
    0.002189498	    0.000361648	   -0.000076961	    0.000427086	    0.001929192	    0.000413114	   -0.000331198	    0.002800595
    0.001799152	    0.000356573	    0.000074357	   -0.000061025	    0.002217646	    0.000466514	   -0.000521546	    0.002805589
    0.001901121	    0.000451207	   -0.000023466	   -0.000154887	    0.002508108	    0.000564769	   -0.001100254	    0.002617582
    0.002093460	    0.000258725	    0.000074031	    0.000233206	    0.002119720	    0.000466188	   -0.000718039	    0.002609097
    0.002006882	    0.000555660	   -0.000031014	   -0.000442021	    0.002221814	    0.000556700	   -0.000136867	    0.002797225
    0.001797861	    0.000157844	   -0.000080637	    0.000034870	    0.002117926	    0.000409660	   -0.000337699	    0.002402497
    0.001895497	    0.000260510	   -0.000074859	    0.000133365	    0.002023645	    0.000513376	   -0.000909693	    0.002613501
    0.001993940	    0.000361612	   -0.000080665	    0.000230949	    0.001929537	    0.000409430	   -0.000338233	    0.002402096
    0.002094787	    0.000260955	   -0.000167174	    0.000137764	    0.002023091	    0.000519016	   -0.001285776	    0.003019760
    0.001697658	    0.000457359	   -0.000035293	    0.000032642	    0.002123931	    0.000552942	    0.000049790	    0.002594569
    0.001788355	    0.000765744	   -0.000168862	    0.000419903	    0.001744320	    0.000615167	   -0.000700021	    0.003608066
    0.001999595	    0.000763980	    0.000072560	   -0.000057226	    0.001840960	    0.000366218	   -0.000529451	    0.002406200
    0.001899838	    0.000252679	    0.000119424	   -0.000059223	    0.002408310	    0.000413624	   -0.000532995	    0.002206627
    0.001995765	    0.000360950	   -0.000120020	    0.000135656	    0.002025149	    0.000370160	   -0.001688509	    0.002030385
    0.001893214	    0.000463262	   -0.000214170	    0.000230341	    0.001930581	    0.000472067	   -0.001869348	    0.002633318
    0.001899823	    0.000464130	   -0.000076619	   -0.000058954	    0.001835309	    0.000413386	   -0.000917062	    0.002214592
    0.001797096	    0.000758749	   -0.000070527	    0.000035583	    0.002129118	    0.000517540	   -0.001097337	    0.002817753
    0.001794759	    0.000356387	   -0.000021873	    0.000131304	    0.002217239	    0.000468455	   -0.000514464	    0.003204727
    0.002092367	    0.000256550	    0.000021141	    0.000329269	    0.002215988	    0.000315302	   -0.000925113	    0.001814968
    0.001896241	    0.000460548	   -0.000076721	    0.000133158	    0.002027421	    0.000413488	   -0.001699933	    0.001432128
    0.001887245	    0.000464431	   -0.000071179	    0.000518004	    0.001834913	    0.000517056	   -0.000903398	    0.003012795
    0.001798371	    0.000564938	   -0.000115787	   -0.000060178	    0.001836582	    0.000570203	   -0.001281568	    0.003220603
    0.001895649	    0.000459669	    0.000017518	    0.000132754	    0.002027689	    0.000507594	   -0.000142309	    0.002597981
    0.001995284	    0.000356288	   -0.000027690	    0.000135005	    0.002217910	    0.000560545	   -0.000522095	    0.002805041
    0.002299189	    0.000656511	   -0.000074527	   -0.000051179	    0.002223568	    0.000513375	   -0.000909031	    0.002612807
    0.002090372	    0.000460731	   -0.000069107	    0.000329696	    0.002027056	    0.000617044	   -0.000895115	    0.003411186
    0.002093947	    0.000258546	   -0.000125892	    0.000233322	    0.002119823	    0.000462343	   -0.001109275	    0.002217861
    0.001792810	    0.000362307	   -0.000070995	    0.000227606	    0.001928983	    0.000517241	   -0.000706784	    0.003208643
    0.001893569	    0.000464734	   -0.000063136	    0.000133869	    0.001833998	    0.000524813	   -0.000886997	    0.003810943
    0.001993333	    0.000358360	   -0.000071015	    0.000231456	    0.002121058	    0.000321142	   -0.000714242	    0.002808953
    0.002196943	    0.000758749	   -0.000070642	    0.000043272	    0.002129118	    0.000517256	   -0.001097359	    0.002816628
    0.001894934	    0.000456741	   -0.000070810	    0.000133536	    0.002219381	    0.000517425	   -0.000901896	    0.003012765
    0.001898869	    0.000660207	   -0.000170517	   -0.000058696	    0.002030986	    0.000515447	   -0.000901487	    0.003012936
    0.001795411	    0.000156099	    0.000070197	    0.000130849	    0.002213861	    0.000462615	   -0.000138467	    0.002797761
    0.001893047	    0.000462365	   -0.000021925	    0.000229496	    0.001930964	    0.000468158	   -0.000710580	    0.003008850
    0.001896099	    0.000256082	   -0.000080628	    0.000133013	    0.002216068	    0.000409650	   -0.000533520	    0.002206638
    0.001991817	    0.000760370	   -0.000023759	    0.000327566	    0.002033053	    0.000368251	   -0.000913963	    0.002414182
    0.001897934	    0.000454413	   -0.000027568	    0.000037063	    0.002315866	    0.000364589	   -0.000725045	    0.002210663
    0.001994141	    0.000550759	   -0.000076589	    0.000231346	    0.002510076	    0.000413651	   -0.001112628	    0.002018882
    0.001993930	    0.000761686	   -0.000178468	    0.000231185	    0.001937354	    0.000507558	   -0.000721956	    0.002410196
    0.002089403	    0.000659077	   -0.000119980	    0.000425949	    0.002127235	    0.000566239	   -0.001485843	    0.002625244
    0.002198998	    0.000564183	   -0.000119794	   -0.000052885	    0.001836609	    0.000369934	   -0.000905528	    0.002812466
    0.001593506	    0.000158440	    0.000123027	    0.000223317	    0.002117591	    0.000417508	   -0.000330567	    0.002802194
    0.001899629	    0.000256952	   -0.000074694	   -0.000058812	    0.002215935	    0.000513542	   -0.001300330	    0.002222175
    0.001790183	    0.000360680	    0.000079839	    0.000323579	    0.002024881	    0.000570187	   -0.000507632	    0.003603869
    0.001791026	    0.000357685	    0.000081859	    0.000324164	    0.002217305	    0.000474166	   -0.001289861	    0.002821235
    0.001688324	    0.000456760	   -0.000108234	    0.000419269	    0.002314596	    0.000578158	   -0.002245203	    0.003040857
    0.001590630	    0.000157725	   -0.000016272	    0.000320443	    0.002213366	    0.000572343	   -0.001282310	    0.003220749
    0.001692164	    0.000464456	   -0.000106377	    0.000227251	    0.001929836	    0.000481858	   -0.002245481	    0.003040863
    0.001592613	    0.000563190	    0.000034966	    0.000224282	    0.001932356	    0.000427123	   -0.001090496	    0.003217317
    0.001594342	    0.000161890	   -0.000110331	    0.000128772	    0.002020537	    0.000478057	   -0.001665630	    0.003228480
    0.001497171	    0.000263343	   -0.000017950	    0.000030087	    0.001927065	    0.000472302	   -0.001485102	    0.002626208
    0.001491960	    0.000068790	    0.000026820	    0.000318089	    0.001635180	    0.000419067	   -0.001301920	    0.002222834
    0.001694680	    0.000265410	    0.000034747	    0.000130193	    0.001830578	    0.000426904	   -0.001285999	    0.003020970
    0.001494997	   -0.000135038	    0.000028712	    0.000125845	    0.001823385	    0.000519218	   -0.000902229	    0.003013434
    0.001694042	    0.000461746	    0.000034990	    0.000130190	    0.002026858	    0.000623226	   -0.001278125	    0.003420387
    0.001604150	    0.000163336	    0.000033181	   -0.000352524	    0.001924976	    0.000523273	   -0.001088653	    0.003216844
    0.001492159	    0.000064008	    0.000185486	    0.000222407	    0.001922680	    0.000479946	   -0.001086707	    0.003416718
    0.001900558	    0.000255340	   -0.000019764	   -0.000154678	    0.002311707	    0.000568471	   -0.001092736	    0.003016451
    0.001594342	    0.000161890	   -0.000110331	    0.000128772	    0.002020537	    0.000478057	   -0.001665630	    0.003228480
    0.001689890	    0.000659055	   -0.000021810	    0.000418113	    0.002127270	    0.000468422	   -0.001493330	    0.002227126
    0.001597587	    0.000155186	    0.000025261	    0.000031527	    0.002310125	    0.000515650	   -0.001104788	    0.002418447
    0.001789170	    0.000155693	   -0.000067277	    0.000420394	    0.002309573	    0.000521222	   -0.001481804	    0.002824848
    0.001692413	   -0.000136937	    0.000079507	    0.000225712	    0.001919325	    0.000570101	   -0.000702992	    0.003408196
    0.001685626	    0.000262101	    0.000040233	    0.000515021	    0.002022191	    0.000530804	   -0.001271973	    0.003819328
    0.001690687	    0.000258017	   -0.000061346	    0.000322847	    0.002214759	    0.000429050	   -0.001669705	    0.003028746
    0.001592940	    0.000555827	    0.000035103	    0.000224455	    0.002316996	    0.000427392	   -0.001481241	    0.002825992
    0.002188869	    0.000355898	    0.000032674	    0.000428080	    0.002313423	    0.000522936	   -0.001481820	    0.002824016
    0.001793341	    0.000358630	    0.000025141	    0.000227473	    0.002121604	    0.000515439	   -0.000714231	    0.002809513
    0.001891018	    0.000464724	   -0.000167157	    0.000326153	    0.001834701	    0.000519032	   -0.001286586	    0.003020636
    0.001892866	    0.000259191	   -0.000018179	    0.000229895	    0.002119183	    0.000472111	   -0.001094103	    0.003016479
    0.001988910	    0.000354628	    0.000124923	    0.000423265	    0.002313558	    0.000517362	   -0.000323557	    0.003200200
    0.002297121	    0.000458902	   -0.000021885	    0.000045142	    0.002123389	    0.000468089	   -0.001101198	    0.002616556
    0.001897085	    0.000058331	    0.000040578	   -0.000057837	    0.002210581	    0.000530899	   -0.001269551	    0.003818263
    0.002091576	    0.000456589	   -0.000074859	    0.000329444	    0.002219723	    0.000513376	   -0.000910026	    0.002613168
    0.001985374	    0.000366881	    0.000030513	    0.000616233	    0.001736695	    0.000422670	   -0.001099399	    0.002816794
    0.001891790	    0.000260011	    0.000119147	    0.000325001	    0.002023600	    0.000413385	   -0.000142808	    0.002597963
    0.001991475	    0.000164074	    0.000171929	    0.000326940	    0.001829130	    0.000368008	   -0.000139068	    0.002797215
    0.002293758	    0.000254927	   -0.000024015	    0.000237271	    0.002311848	    0.000368142	   -0.001109071	    0.002217414
    0.001893048	    0.000458514	   -0.000023817	    0.000229428	    0.002123487	    0.000564419	   -0.000710444	    0.003008847
    0.002195259	    0.000359858	   -0.000125780	    0.000138900	    0.002025402	    0.000462231	   -0.000522206	    0.002804483
    0.001896129	    0.000255865	    0.000013536	    0.000132731	    0.002216346	    0.000503832	   -0.000149902	    0.002198865
    0.002093245	    0.000259236	   -0.000118198	    0.000233858	    0.002119294	    0.000470037	   -0.001485350	    0.002624641
    0.001990659	    0.000354492	   -0.000078753	    0.000423472	    0.002314030	    0.000313452	   -0.001120736	    0.001619624
    0.001897587	    0.000461468	    0.000066596	    0.000036482	    0.001931452	    0.000458493	    0.000049790	    0.002594051
    0.001990106	    0.000357532	    0.000013416	    0.000422882	    0.002122030	    0.000503731	    0.000045028	    0.002394293
    0.001795361	    0.000556211	   -0.000027520	    0.000131160	    0.002221755	    0.000560715	   -0.000522082	    0.002805705
    0.002192658	    0.000354617	   -0.000071010	    0.000235295	    0.002313451	    0.000517225	   -0.000706537	    0.003207357
    0.001890571	    0.000460068	   -0.000070995	    0.000325482	    0.002026859	    0.000517241	   -0.000511410	    0.003404016
    0.002095573	   -0.000140101	    0.000017118	    0.000136599	    0.002016155	    0.000507435	   -0.000142320	    0.002597378
    0.001890619	    0.000259471	   -0.000076945	    0.000325014	    0.002023398	    0.000609490	   -0.000127719	    0.003396140
    0.002091189	    0.000259765	   -0.000176916	    0.000329185	    0.002023718	    0.000607398	   -0.000518968	    0.003004226
    0.001688541	    0.000259703	   -0.000182717	    0.000513585	    0.002024042	    0.000503803	   -0.000534461	    0.002207097
    0.002196223	    0.000359749	   -0.000133515	    0.000138704	    0.002025975	    0.000454577	   -0.000537443	    0.002006549
    0.001890317	    0.000261959	   -0.000127917	    0.000421532	    0.001927550	    0.000362352	   -0.000726174	    0.002210541
    0.002093008	    0.000458511	   -0.000218008	    0.000233743	    0.002123016	    0.000468172	   -0.001094110	    0.003016095
    0.001892543	    0.000261566	   -0.000122038	    0.000229152	    0.001926769	    0.000466197	   -0.000319270	    0.003400021
    0.001999829	    0.000557782	   -0.000072399	   -0.000153413	    0.002125043	    0.000613392	   -0.000314042	    0.003599271
    0.002193863	    0.000561535	   -0.000080564	    0.000234793	    0.001933381	    0.000409329	   -0.000338241	    0.002401684
    0.001896046	    0.000456226	    0.000019445	    0.000133012	    0.002219917	    0.000411601	   -0.000533518	    0.002206744
    0.001889836	    0.000461971	   -0.000125880	    0.000421598	    0.001931321	    0.000462356	   -0.000718665	    0.002609774
    0.001896384	    0.000257388	   -0.000027690	    0.000036450	    0.002119356	    0.000560545	    0.000065098	    0.003392233
    0.002190019	    0.000561531	   -0.000082602	    0.000426995	    0.001933612	    0.000505432	   -0.000338701	    0.002401694
    0.001993907	    0.000557926	    0.000017508	    0.000230916	    0.002125850	    0.000507603	   -0.000338167	    0.002402162
    0.002090097	    0.000450785	    0.000070255	    0.000425304	    0.002508317	    0.000462557	   -0.000725762	    0.002210237
    0.001991504	    0.000155815	   -0.000031831	    0.000326914	    0.002214125	    0.000556665	   -0.000139015	    0.002797214
    0.002190333	    0.000558243	   -0.000178730	    0.000427319	    0.002125799	    0.000507501	   -0.001113450	    0.002018496
    0.002089230	    0.000457924	   -0.000027847	    0.000425144	    0.002123582	    0.000560389	   -0.000327377	    0.003000410
    0.001989965	    0.000562239	   -0.000174865	    0.000423688	    0.001933338	    0.000511345	   -0.001106150	    0.002417951
    0.002093635	    0.000261796	   -0.000029791	    0.000232884	    0.001927579	    0.000460293	   -0.000334447	    0.002601326
    0.001989541	    0.000361928	    0.000023020	    0.000423241	    0.001929197	    0.000415177	   -0.000331188	    0.002801154
    0.001992014	    0.000355954	   -0.000131633	    0.000327142	    0.002218192	    0.000554734	   -0.000530175	    0.002406004
    0.002195067	    0.000352996	   -0.000023831	    0.000139173	    0.002410011	    0.000564404	   -0.000905550	    0.002812286
    0.002093075	    0.000454079	   -0.000027690	    0.000232910	    0.002315816	    0.000560545	   -0.000326738	    0.003000397
    0.001786732	    0.000165707	    0.000018995	    0.000611576	    0.001733345	    0.000215236	   -0.000346644	    0.002003396
    0.002090295	    0.000257465	   -0.000037578	    0.000424809	    0.002120125	    0.000452728	    0.000041272	    0.002194554
    0.001995348	    0.000555666	   -0.000029494	    0.000134694	    0.002221545	    0.000460572	   -0.000138477	    0.002797258
    0.002191414	    0.000356013	   -0.000125892	    0.000331134	    0.002217635	    0.000462343	   -0.000522644	    0.002804492
    0.001987594	    0.000360139	   -0.000026059	    0.000519523	    0.002025407	    0.000464249	   -0.000523272	    0.002805065
    0.002098825	    0.000459999	   -0.000072671	   -0.000055184	    0.002026991	    0.000417159	   -0.000517813	    0.003004306
    0.002092057	    0.000656364	   -0.000076683	    0.000329358	    0.002223621	    0.000413450	   -0.000917564	    0.002214343
    0.001895530	    0.000462623	   -0.000015930	    0.000037452	    0.001930376	    0.000572000	   -0.000694683	    0.003807008
    0.001996679	    0.000357524	    0.000021399	    0.000038380	    0.002121339	    0.000511435	    0.000061262	    0.003192366
    0.001787621	    0.000560329	   -0.000123905	    0.000515954	    0.002029382	    0.000562463	   -0.000906952	    0.002813619
    0.001897454	    0.000262308	   -0.000025800	    0.000037129	    0.001927481	    0.000464304	   -0.000717666	    0.002609610
    0.001693756	    0.000262053	   -0.000123925	    0.000225589	    0.001927225	    0.000366364	   -0.000718157	    0.002610141
    0.001592554	    0.000363795	   -0.000033586	    0.000319403	    0.001833745	    0.000456682	   -0.000537909	    0.002007761
    0.001897525	    0.000461971	   -0.000125630	    0.000037131	    0.001931321	    0.000462420	   -0.000717663	    0.002609754
    0.001794376	    0.000554205	   -0.000080479	    0.000227272	    0.002318016	    0.000409780	   -0.000729254	    0.002011402
    0.001992848	    0.000357219	    0.000117350	    0.000230197	    0.002121293	    0.000509506	    0.000444305	    0.003184567
    0.001995361	    0.000159396	    0.000066337	    0.000134333	    0.002021614	    0.000458493	    0.000245188	    0.002789468
    0.002097792	    0.000654548	   -0.000125512	    0.000041089	    0.002319747	    0.000462615	   -0.001108628	    0.002218290
    0.002189486	    0.000361913	   -0.000175025	    0.000427398	    0.001929359	    0.000511147	   -0.000714928	    0.002808406
    0.001689383	    0.000461774	   -0.000025899	    0.000417487	    0.001931060	    0.000464428	   -0.000327417	    0.003001609
    0.001990500	   -0.000038061	    0.000018986	    0.000423187	    0.001921734	    0.000215227	   -0.000346202	    0.002002918
    0.001987645	    0.000156096	   -0.000124216	    0.000519574	    0.002213521	    0.000366316	   -0.000523173	    0.002804958
    0.001689207	    0.000662581	   -0.000117973	    0.000418286	    0.001934633	    0.000470263	   -0.001094872	    0.003017534
    0.001891804	    0.000455824	    0.000017398	    0.000324988	    0.002219923	    0.000507714	   -0.000142780	    0.002597991
    0.001997277	    0.000561296	    0.000017667	    0.000038399	    0.001933334	    0.000507444	    0.000053614	    0.002793309
    0.001892136	    0.000860128	   -0.000078487	    0.000325425	    0.002035445	    0.000509621	   -0.000917729	    0.002214972
    0.002085914	    0.000658050	   -0.000125880	    0.000617677	    0.002127399	    0.000462356	   -0.000719034	    0.002609404
    0.002193350	    0.000161176	   -0.000080786	    0.000234472	    0.001925371	    0.000409271	    0.000053068	    0.002792784
    0.002091576	    0.000456589	   -0.000074859	    0.000329444	    0.002219723	    0.000513376	   -0.000910026	    0.002613168
    0.001899891	    0.000460071	    0.000019527	   -0.000059222	    0.002027683	    0.000411519	   -0.000533197	    0.002206738
    0.001996679	    0.000357524	    0.000021399	    0.000038380	    0.002121339	    0.000511435	    0.000061262	    0.003192366
    0.001997277	    0.000157610	    0.000019305	    0.000038394	    0.002117610	    0.000411462	    0.000053604	    0.002793331
    0.001992455	    0.000155982	   -0.000133659	    0.000327093	    0.002214364	    0.000454721	   -0.000537720	    0.002006848
    0.002087853	    0.000655999	   -0.000078710	    0.000521372	    0.002223702	    0.000509525	   -0.000526906	    0.002605436
    0.002094948	    0.000464129	   -0.000170901	    0.000137382	    0.001834908	    0.000515063	   -0.000902253	    0.003012171
    0.001990744	    0.000354330	    0.000015410	    0.000423209	    0.002314365	    0.000407653	   -0.000737153	    0.001611814
    0.002094080	    0.000254276	    0.000068273	    0.000232856	    0.002312126	    0.000362482	   -0.000341898	    0.002202316
    0.002089756	    0.000062138	    0.000071837	    0.000425150	    0.001923489	    0.000366066	   -0.000334947	    0.002601270
    0.001790914	    0.000360233	   -0.000022048	    0.000323538	    0.002025005	    0.000468280	   -0.000515178	    0.003204741
    0.001884822	    0.000058133	   -0.000024483	    0.000613589	    0.002115491	    0.000564356	   -0.000320515	    0.003399982
    0.001994381	    0.000157809	   -0.000084609	    0.000230887	    0.002118194	    0.000405669	   -0.000345750	    0.002002978
    0.001993387	    0.000354233	    0.000021258	    0.000230975	    0.002313934	    0.000511575	   -0.000330523	    0.002801140
    0.002093008	    0.000458511	   -0.000218008	    0.000233743	    0.002123016	    0.000468172	   -0.001094110	    0.003016095
    0.001993283	    0.000358627	   -0.000169042	    0.000231769	    0.002121152	    0.000419194	   -0.001097897	    0.002816764
    0.002088333	    0.000456006	   -0.000080757	    0.000521325	    0.002219913	    0.000409521	   -0.000534373	    0.002206321
    0.001783879	    0.000359853	   -0.000128048	    0.000707862	    0.002025671	    0.000558562	   -0.000523799	    0.002805635
    0.001895103	    0.000455560	   -0.000078563	    0.000132775	    0.002219572	    0.000509672	   -0.000134662	    0.002997066
    0.002189364	    0.000558545	   -0.000171014	    0.000427742	    0.002125267	    0.000515176	   -0.001098444	    0.002816432
    0.002188897	    0.000557762	   -0.000072950	    0.000427142	    0.002124849	    0.000417106	   -0.000323630	    0.003199628
    0.002093635	    0.000261796	   -0.000029791	    0.000232884	    0.001927579	    0.000460293	   -0.000334447	    0.002601326
    0.002193325	    0.000157065	    0.000015334	    0.000234093	    0.002117560	    0.000407490	    0.000436715	    0.002785051
    0.001994751	    0.000157779	    0.000107621	    0.000230668	    0.002118419	    0.000401818	    0.000030325	    0.001596195
    0.001888439	    0.000255866	    0.000013325	    0.000517198	    0.002216346	    0.000503822	   -0.000150745	    0.002198882
    0.002093669	    0.000057763	   -0.000131792	    0.000232853	    0.002116213	    0.000554594	   -0.000334384	    0.002601258
    0.001887959	    0.000063673	    0.000018927	    0.000517235	    0.001827516	    0.000411324	   -0.000143334	    0.002597945
    0.001994381	    0.000561496	   -0.000086345	    0.000230854	    0.001933842	    0.000501728	   -0.000345814	    0.002003118
    0.002197170	    0.000160909	    0.000015492	    0.000041859	    0.001925326	    0.000407332	    0.000437333	    0.002785039
    0.001988603	    0.000355912	    0.000062403	    0.000519115	    0.002218279	    0.000454741	   -0.000154482	    0.001999153
    0.001988555	    0.000356109	   -0.000031770	    0.000519378	    0.002218020	    0.000360531	   -0.000538102	    0.002006963
    0.002090705	    0.000461432	   -0.000135522	    0.000425028	    0.001931744	    0.000354603	   -0.000349955	    0.001803387
    0.002190018	    0.000557691	   -0.000080665	    0.000427027	    0.002125615	    0.000409430	   -0.000338636	    0.002401692
    0.002091169	    0.000059858	    0.000020942	    0.000328853	    0.002019655	    0.000511278	   -0.000135275	    0.002996427
    0.002093075	    0.000465619	   -0.000025806	    0.000232942	    0.001738826	    0.000463997	   -0.000326927	    0.003000401
    0.001888757	    0.000263882	    0.000017179	    0.000517430	    0.001831659	    0.000311358	   -0.000542041	    0.001807569
    0.001992447	    0.000355915	    0.000064421	    0.000326896	    0.002218087	    0.000358629	   -0.000154098	    0.001999145
    0.001695174	    0.000259194	    0.000017378	    0.000128550	    0.002023485	    0.000507733	    0.000249015	    0.002989862
    0.001891212	    0.000663762	   -0.000074724	    0.000325389	    0.001838890	    0.000513268	   -0.000519053	    0.003005035
    0.001793514	    0.000161735	    0.000119138	    0.000226783	    0.001925381	    0.000413395	    0.000053089	    0.002793899
    0.001599662	    0.000364364	   -0.000025640	   -0.000064679	    0.001833362	    0.000464483	   -0.000913200	    0.002414766
    0.001891811	    0.000255398	    0.000015314	    0.000324660	    0.002215816	    0.000407749	    0.000240839	    0.002590190
    0.001792856	   -0.000039405	    0.000113181	    0.000225936	    0.001921243	    0.000505731	    0.000828137	    0.003177717
    0.001889131	    0.000462658	   -0.000118182	    0.000422131	    0.001930788	    0.000470053	   -0.001094887	    0.003016713
    0.001991888	    0.000563054	   -0.000063155	    0.000232073	    0.001932202	    0.000524832	   -0.001082938	    0.003615078
    0.001991911	    0.000164200	   -0.000126049	    0.000327480	    0.001829513	    0.000462186	   -0.000914148	    0.002413639
    0.001988115	    0.000156277	   -0.000029985	    0.000519426	    0.002214120	    0.000460487	   -0.000530639	    0.002405907
    0.002091697	    0.000256157	   -0.000076925	    0.000329189	    0.002215762	    0.000413373	   -0.000526410	    0.002605215
    0.001986261	    0.000361377	    0.000013305	    0.000615116	    0.001929796	    0.000503621	    0.000044577	    0.002394302
    0.001983520	    0.000560885	   -0.000120239	    0.000712357	    0.002029176	    0.000566111	   -0.001291196	    0.002820957
    0.002086256	    0.000262396	   -0.000124232	    0.000617897	    0.001927376	    0.000366018	   -0.001110339	    0.002217882
    0.002095902	    0.000660209	   -0.000076619	    0.000137124	    0.002031387	    0.000413386	   -0.000917316	    0.002214338
    0.001891259	    0.000459405	   -0.000078710	    0.000325009	    0.002027339	    0.000509525	   -0.000135263	    0.002997078
    0.001793482	    0.000361918	   -0.000172892	    0.000227544	    0.001929089	    0.000415343	   -0.000714368	    0.002809516
    0.001988556	    0.000359950	   -0.000033716	    0.000519326	    0.002025979	    0.000456552	   -0.000538206	    0.002006965
    0.001895057	    0.000260070	   -0.000074859	    0.000133155	    0.002023435	    0.000513376	   -0.000518380	    0.003004814
    0.002089730	    0.000654453	   -0.000223740	    0.000425663	    0.002319708	    0.000560574	   -0.001101977	    0.002617315
    0.002089552	    0.000458892	   -0.000220074	    0.000425952	    0.002123386	    0.000564240	   -0.001485848	    0.002624948
    0.001894216	    0.000057546	   -0.000035659	    0.000228727	    0.002116069	    0.000356717	    0.000041701	    0.002194991
    0.001992000	    0.000360041	   -0.000223925	    0.000327569	    0.002025355	    0.000364310	   -0.000913970	    0.002413817
    0.002092222	    0.000255650	   -0.000084618	    0.000328824	    0.002216131	    0.000405678	   -0.000150332	    0.002198435
    0.002094085	    0.000465727	   -0.000127771	    0.000233143	    0.001739161	    0.000362206	   -0.000725895	    0.002210239
    0.001895663	    0.000259486	   -0.000082574	    0.000132754	    0.002023839	    0.000505662	   -0.000142310	    0.002597953
    0.001893745	   -0.000138310	   -0.000129995	    0.000229040	    0.001919885	    0.000458463	   -0.000334440	    0.002601712
    0.001797307	    0.000162004	    0.000023167	    0.000034928	    0.001925352	    0.000415324	   -0.000330103	    0.002801625
    0.002001640	   -0.000038461	    0.000017371	   -0.000153828	    0.001921647	    0.000311369	    0.000046415	    0.002394283
    0.001897582	    0.000261286	   -0.000033495	    0.000036482	    0.001927603	    0.000456571	    0.000049790	    0.002594061
    0.001990086	    0.000357995	   -0.000178793	    0.000423419	    0.002121899	    0.000507564	   -0.000722285	    0.002409915
    0.001686068	    0.000658050	   -0.000125803	    0.000609988	    0.002127399	    0.000462618	   -0.000719015	    0.002610446
    0.001895649	    0.000455829	    0.000019445	    0.000132768	    0.002219673	    0.000411601	   -0.000142282	    0.002597981
    0.001888439	    0.000259715	    0.000015242	    0.000517213	    0.002023901	    0.000407600	   -0.000150774	    0.002198883
    0.002093605	    0.000654199	   -0.000127520	    0.000233140	    0.002319884	    0.000558661	   -0.000717895	    0.002609381
    0.001694669	    0.000265534	   -0.000035542	    0.000225105	    0.001735669	    0.000356615	   -0.000349664	    0.001804031
    0.001896143	    0.000059571	   -0.000084618	    0.000132745	    0.002020052	    0.000405678	   -0.000149931	    0.002198836
    0.001992804	    0.000761832	   -0.000170673	    0.000231452	    0.001936666	    0.000515234	   -0.000706791	    0.003208285
    0.002095970	    0.000260143	    0.000017359	    0.000136805	    0.002024050	    0.000507473	   -0.000533631	    0.002206200
    0.001792896	    0.000161748	   -0.000076935	    0.000227156	    0.001925541	    0.000609480	   -0.000323056	    0.003200764
    0.001889133	    0.000659627	   -0.000086436	    0.000517328	    0.002031769	    0.000305721	   -0.000549401	    0.001408696
    0.001789515	    0.000162549	   -0.000169310	    0.000420159	    0.001925073	    0.000419094	   -0.001098641	    0.002817122
    0.002087729	    0.000864130	   -0.000072881	    0.000521765	    0.001842694	    0.000417064	   -0.000910870	    0.002613549
    0.001697072	    0.000461774	   -0.000025611	    0.000033019	    0.001931060	    0.000464454	   -0.000326265	    0.003001586
    0.002094515	    0.000257845	   -0.000035550	    0.000232794	    0.002120136	    0.000356607	   -0.000349544	    0.001803309
    0.002089821	    0.000661392	    0.000066476	    0.000424795	    0.001935297	    0.000458374	    0.000048785	    0.002593544
    0.001887960	    0.000059823	    0.000017009	    0.000517222	    0.002020000	    0.000507566	   -0.000143307	    0.002597944
    0.002093661	    0.000457365	   -0.000033495	    0.000232561	    0.002123681	    0.000456571	    0.000049273	    0.002593543
    0.002288136	    0.000460286	   -0.000076990	    0.000525436	    0.002027542	    0.000413143	   -0.000918177	    0.002213731
    0.001894024	    0.000858316	   -0.000125499	    0.000229478	    0.002131357	    0.000462628	   -0.001109254	    0.002218967
    0.001792036	    0.000759890	   -0.000029502	    0.000323347	    0.002033420	    0.000460602	   -0.000530264	    0.002406697
    0.002193830	    0.000358003	    0.000017369	    0.000234760	    0.002122006	    0.000507464	   -0.000338177	    0.002401615
    0.002295466	    0.000456075	   -0.000078621	    0.000140749	    0.002219858	    0.000509411	   -0.000525918	    0.002604790
    0.002091169	    0.000455854	    0.000019323	    0.000328840	    0.002219866	    0.000607558	   -0.000135248	    0.002996480
    0.002189343	    0.000762321	    0.000025180	    0.000427396	    0.001937059	    0.000515068	   -0.000714923	    0.002808691
    0.001988179	    0.000363412	   -0.000035662	    0.000519126	    0.001833789	    0.000552573	   -0.000147073	    0.002398204
    0.001995878	    0.000355497	    0.000062595	    0.000134387	    0.002218019	    0.000454752	    0.000237521	    0.002390374
    0.001882759	    0.000660656	   -0.000069214	    0.000710320	    0.002030900	    0.000617184	   -0.000896408	    0.003412073
    0.001993940	    0.000361612	   -0.000080665	    0.000230949	    0.001929537	    0.000409430	   -0.000338233	    0.002402096
    0.001889867	    0.000457875	   -0.000029753	    0.000421274	    0.002123657	    0.000460554	   -0.000334871	    0.002601921
    0.001995232	    0.000364255	   -0.000121945	    0.000135418	    0.001833034	    0.000466104	   -0.000906060	    0.002812858
    0.002193829	    0.000361852	    0.000019277	    0.000234793	    0.001929541	    0.000411232	   -0.000338242	    0.002401617
    0.001891259	    0.000459405	   -0.000078710	    0.000325009	    0.002027339	    0.000509525	   -0.000135263	    0.002997078
    0.002083691	    0.000657025	   -0.000073042	    0.000714092	    0.002223612	    0.000613298	   -0.001294646	    0.002621294
    0.001894191	    0.000254056	   -0.000031669	    0.000229012	    0.002312122	    0.000360670	   -0.000341889	    0.002202755
    0.001894220	    0.000653686	    0.000062705	    0.000228731	    0.002320052	    0.000454862	    0.000041693	    0.002194967
    0.001990061	    0.000557931	    0.000019316	    0.000423182	    0.002125620	    0.000411472	   -0.000338627	    0.002402171
    0.001891245	    0.000259781	    0.000021101	    0.000325008	    0.002023500	    0.000511438	   -0.000135263	    0.002997051
    0.001792895	    0.000161760	   -0.000073091	    0.000227218	    0.001924926	    0.000417247	   -0.000323056	    0.003200764
    0.002092207	    0.000455793	    0.000015453	    0.000328824	    0.002219979	    0.000407610	   -0.000150331	    0.002198465
    0.002192749	    0.000360126	   -0.000131726	    0.000330978	    0.002025771	    0.000358474	   -0.001320298	    0.001224241
    0.001895664	    0.000263326	   -0.000084500	    0.000132741	    0.001831855	    0.000601654	   -0.000142337	    0.002597953
    0.002090271	    0.000457815	   -0.000035542	    0.000425025	    0.002124156	    0.000552693	   -0.000342384	    0.002202394
    0.002096024	    0.000459846	   -0.000082492	    0.000136806	    0.002027891	    0.000505580	   -0.000533629	    0.002206306
    0.001990084	    0.000361845	   -0.000176903	    0.000423489	    0.001929433	    0.000411332	   -0.000722424	    0.002409918
    0.001890782	    0.000261509	   -0.000135594	    0.000421184	    0.001927899	    0.000354674	   -0.000349950	    0.001803677
    0.001790172	    0.000161685	   -0.000082804	    0.000419305	    0.001925923	    0.000505634	   -0.000338686	    0.002402517
    0.002096057	    0.000263129	    0.000011619	    0.000136324	    0.001831656	    0.000403538	    0.000233798	    0.002190654
    0.001987659	    0.000163510	   -0.000030050	    0.000519161	    0.001829388	    0.000460276	   -0.000139605	    0.002797226
    0.001990455	    0.000358127	   -0.000080747	    0.000423350	    0.002121938	    0.000409512	   -0.000729790	    0.002010866
    0.001986363	    0.000160044	   -0.000118543	    0.000519708	    0.002020676	    0.000469995	   -0.000508339	    0.003603062
    0.001988889	    0.000558385	   -0.000070995	    0.000423684	    0.002125061	    0.000517241	   -0.000707273	    0.003208154
    0.001790373	    0.000362370	   -0.000076884	    0.000419735	    0.001929530	    0.000413356	   -0.001113653	    0.002019084
    0.001988836	    0.000562541	   -0.000167148	    0.000424105	    0.001932653	    0.000519023	   -0.001091138	    0.003216045
    0.001898051	    0.000053487	    0.000058597	    0.000036250	    0.002308470	    0.000451010	    0.000425696	    0.002187288
    0.001992400	    0.000759800	   -0.000031496	    0.000327144	    0.002033475	    0.000360517	   -0.000537817	    0.002007172
    0.001892655	    0.000859626	   -0.000082400	    0.000325198	    0.002035423	    0.000309633	   -0.000541584	    0.001807884
    0.001887174	    0.000460880	   -0.000167242	    0.000518387	    0.002026935	    0.000519117	   -0.001286918	    0.003020643
    0.002091177	    0.000263039	    0.000017268	    0.000328473	    0.001831251	    0.000507306	    0.000248466	    0.002988680
    0.001992734	    0.000562230	   -0.000070872	    0.000231450	    0.001932828	    0.000517118	   -0.000706793	    0.003208144
    0.002186289	    0.000754725	   -0.000172892	    0.000619891	    0.002321436	    0.000415343	   -0.001497201	    0.002026683
    0.001791594	    0.000159385	   -0.000129864	    0.000323083	    0.002021617	    0.000458632	   -0.000139031	    0.002797772
    0.001996649	    0.000560668	    0.000017725	    0.000037963	    0.001932898	    0.000507387	    0.000444999	    0.003184464
    0.001988917	    0.000559782	   -0.000035542	    0.000519276	    0.002029840	    0.000356615	   -0.000545671	    0.001608025
    0.001892687	    0.000255482	    0.000007640	    0.000324762	    0.002216355	    0.000399995	    0.000225753	    0.001792012
    0.001790613	    0.000357728	   -0.000086507	    0.000419243	    0.002122231	    0.000501890	   -0.000346126	    0.002003455
    0.001888534	    0.000254581	   -0.000872838	    0.000517934	    0.002215587	    0.000401923	   -0.000910521	    0.002613518
    0.001976178	    0.001352833	   -0.003071830	    0.001384955	    0.002140691	    0.000555629	   -0.001882677	    0.002036217
    0.002085805	    0.001055567	   -0.004871289	    0.001289912	    0.002037824	    0.000520779	   -0.002859815	    0.001058120
    0.002069431	    0.001453336	   -0.006910323	    0.002540410	    0.001948340	    0.000442138	   -0.003430336	    0.001470664
    0.001978374	    0.000958613	   -0.009012819	    0.002824276	    0.002032835	    0.000396828	   -0.004412646	    0.000092481
    0.001868512	    0.001055556	   -0.010210795	    0.003496174	    0.001939252	    0.000473233	   -0.004211827	    0.000687563
    0.002076733	    0.000655523	   -0.010799390	    0.003692160	    0.001928805	    0.000471698	   -0.005363249	    0.000709529
    0.002070448	    0.001063801	   -0.010957482	    0.003978766	    0.001840595	    0.000411447	   -0.005184219	   -0.000090423
    0.002181398	    0.000954643	   -0.011698870	    0.003789730	    0.002030113	    0.000454532	   -0.005557719	    0.000515578
    0.002175357	    0.001167901	   -0.012660211	    0.004267540	    0.001937762	    0.000374543	   -0.005384526	   -0.000684343
    0.002066061	    0.001076522	   -0.013328295	    0.004455485	    0.002320827	    0.000292885	   -0.004635750	   -0.002097780
    0.001776428	    0.001001276	   -0.015224539	    0.004926975	    0.001834658	    0.000158675	   -0.005610751	   -0.003076636
    0.002085610	    0.000490153	   -0.018061322	    0.005894571	    0.002016083	    0.000358485	   -0.006360913	   -0.002065264
    0.001899943	    0.000070120	   -0.020887470	    0.006953202	    0.001526433	    0.000472828	   -0.007297121	   -0.000053227
    0.001550203	    0.000651488	   -0.024322032	    0.007042011	    0.001629258	    0.000762919	   -0.008630245	    0.000777480
    0.001294321	    0.000386567	   -0.028412004	    0.008664240	    0.001325913	    0.000583955	   -0.010376862	   -0.000587607
    0.001793181	    0.000152687	   -0.032832361	    0.010105332	    0.001800097	    0.000369116	   -0.009818959	   -0.003197204
    0.001751671	    0.000114031	   -0.037578630	    0.011247399	    0.001596825	    0.000317564	   -0.010980087	   -0.004573081
    0.001185288	   -0.000701992	   -0.042418683	    0.012682061	    0.001294377	    0.000471164	   -0.011160937	   -0.003382328
    0.001476620	    0.000105582	   -0.048188062	    0.014488027	    0.000795673	    0.000265260	   -0.015205022	   -0.005491380
    0.001570612	   -0.000206328	   -0.054277561	    0.016778740	    0.001542463	    0.000223559	   -0.016336454	   -0.007073658
    0.001132617	   -0.000398686	   -0.059925478	    0.018110769	    0.000765687	   -0.000045194	   -0.016340561	   -0.008081412
    0.000636640	   -0.000653131	   -0.063955886	    0.019165114	    0.000470850	    0.000035925	   -0.017297713	   -0.006471343
    0.000708872	   -0.000597338	   -0.067233169	    0.021145405	    0.000527294	    0.000046162	   -0.020160525	   -0.009019868
    0.000395045	   -0.000102833	   -0.070724116	    0.024564863	    0.000506898	    0.000629073	   -0.021660357	   -0.010187049
    0.001066973	   -0.000427324	   -0.074743560	    0.027694120	   -0.000041111	    0.001258350	   -0.025669829	   -0.010915932
    0.000480605	   -0.001207211	   -0.078831975	    0.030055491	   -0.000754667	    0.001535004	   -0.026611639	   -0.011930535
   -0.000802933	   -0.000432930	   -0.082261863	    0.032578314	   -0.001069763	    0.001770652	   -0.027908446	   -0.013911508
   -0.001392792	   -0.001091714	   -0.085580357	    0.034645937	   -0.001889135	    0.001227986	   -0.029014673	   -0.016534390
   -0.001652297	   -0.001402481	   -0.087753986	    0.035960901	   -0.002309873	    0.001069406	   -0.030531353	   -0.017328993
   -0.002363106	   -0.001170095	   -0.090476592	    0.039306634	   -0.001835143	    0.000947339	   -0.034625008	   -0.020489090
   -0.003256089	   -0.001595495	   -0.093203615	    0.041515752	   -0.002510651	    0.000834187	   -0.035208032	   -0.019307313
   -0.004279554	   -0.002171104	   -0.095199272	    0.044951655	   -0.003309247	    0.000023141	   -0.036298003	   -0.020342162
   -0.004843777	   -0.002549326	   -0.097890531	    0.046805694	   -0.003757921	   -0.000719594	   -0.037718841	   -0.023784226
   -0.006306729	   -0.002413674	   -0.101393764	    0.049846372	   -0.004935499	   -0.000963589	   -0.039639272	   -0.023185661
   -0.007420666	   -0.002826810	   -0.104254936	    0.052027576	   -0.005808918	   -0.001742618	   -0.038965386	   -0.025471584
   -0.009058395	   -0.004021678	   -0.107411478	    0.054616796	   -0.006871083	   -0.002326317	   -0.041544689	   -0.028175775
   -0.010730738	   -0.004011465	   -0.109833993	    0.057364919	   -0.007988497	   -0.002802955	   -0.045633305	   -0.026755857
   -0.013503165	   -0.003556865	   -0.111187992	    0.058223560	   -0.008588517	   -0.002970699	   -0.043133866	   -0.026436644
   -0.013770733	   -0.004492992	   -0.114499185	    0.060750762	   -0.009345423	   -0.003798319	   -0.045095098	   -0.029533878
   -0.014632162	   -0.004741577	   -0.121035958	    0.064201257	   -0.009746682	   -0.004177197	   -0.048592939	   -0.031598293
   -0.016123129	   -0.004974840	   -0.128135493	    0.067016268	   -0.011351429	   -0.004982590	   -0.053241645	   -0.035331523
   -0.018828000	   -0.006118299	   -0.133527015	    0.069863716	   -0.014050999	   -0.005867229	   -0.050824138	   -0.034091165
   -0.020344743	   -0.005254198	   -0.139177451	    0.072121622	   -0.013907357	   -0.006580033	   -0.053840162	   -0.034300528
   -0.022322077	   -0.006230150	   -0.145480895	    0.075599969	   -0.016024451	   -0.007659727	   -0.059058512	   -0.038144138
   -0.026518911	   -0.006526547	   -0.150688990	    0.078312462	   -0.017250875	   -0.008225678	   -0.057971057	   -0.039399318
   -0.026767570	   -0.005701130	   -0.154084243	    0.081039356	   -0.017992327	   -0.009059704	   -0.060714606	   -0.041234704
   -0.028860379	   -0.006646492	   -0.155778737	    0.083422868	   -0.019605261	   -0.009676310	   -0.059668408	   -0.042233126
   -0.031296210	   -0.007635148	   -0.157775613	    0.084718377	   -0.019826534	   -0.010377741	   -0.060336602	   -0.043248645
   -0.032647178	   -0.007670023	   -0.159538971	    0.088634260	   -0.021546593	   -0.011601568	   -0.064365114	   -0.043522337
   -0.036497389	   -0.007033564	   -0.161623624	    0.090948140	   -0.023587408	   -0.012787823	   -0.064012965	   -0.043459548
   -0.039388571	   -0.008074152	   -0.164496102	    0.094033153	   -0.025368892	   -0.013645727	   -0.068460452	   -0.044098049
   -0.044998248	   -0.006488372	   -0.166916643	    0.097989621	   -0.027445646	   -0.015270090	   -0.069456839	   -0.045963773
   -0.047698132	   -0.008199667	   -0.170339165	    0.103750099	   -0.030361449	   -0.016492738	   -0.072529673	   -0.048385636
   -0.051231172	   -0.008945009	   -0.174193987	    0.106480418	   -0.031606807	   -0.017787350	   -0.079885137	   -0.043285245
   -0.054846039	   -0.005767915	   -0.179101597	    0.111826243	   -0.034204599	   -0.019014191	   -0.081731202	   -0.046456869
   -0.059319306	   -0.009468751	   -0.185416627	    0.110999078	   -0.036194948	   -0.019687624	   -0.082290675	   -0.046855283
   -0.062140807	   -0.008462607	   -0.192060570	    0.113983785	   -0.037334943	   -0.020899662	   -0.086370969	   -0.053101629
   -0.065665398	   -0.007477710	   -0.200122902	    0.115996919	   -0.040759007	   -0.021935546	   -0.084690441	   -0.053954369
   -0.067789185	   -0.007759525	   -0.209060573	    0.120837363	   -0.042471715	   -0.022230220	   -0.092488786	   -0.054458302
   -0.071844273	   -0.010141319	   -0.217511161	    0.120723488	   -0.046046733	   -0.022924674	   -0.089418415	   -0.051022377
   -0.073069976	   -0.008955108	   -0.225088175	    0.124309707	   -0.049273748	   -0.022984431	   -0.097276929	   -0.049992005
   -0.078281270	   -0.008748536	   -0.231159870	    0.124864923	   -0.049908940	   -0.024532762	   -0.093745810	   -0.059983564
   -0.078664219	   -0.005061021	   -0.235823499	    0.129434857	   -0.051813689	   -0.025456293	   -0.103706895	   -0.064946908
   -0.081389571	   -0.007542207	   -0.238734868	    0.130561007	   -0.055323803	   -0.026885650	   -0.104637185	   -0.061647936
   -0.086862093	   -0.010137618	   -0.241944586	    0.133377901	   -0.055808821	   -0.027163163	   -0.106682248	   -0.057160812
   -0.092620191	   -0.006929594	   -0.245324008	    0.138845527	   -0.059727686	   -0.029898791	   -0.111123891	   -0.061396914
   -0.097671994	   -0.008345095	   -0.248705097	    0.146366257	   -0.061491805	   -0.031827558	   -0.123164779	   -0.057476135
   -0.102912552	   -0.007299989	   -0.251592132	    0.148402366	   -0.063992505	   -0.034249438	   -0.126161756	   -0.052345778
   -0.107475470	   -0.004812806	   -0.255213398	    0.155072598	   -0.069197842	   -0.038460358	   -0.138959489	   -0.059299756
   -0.116014907	   -0.005325333	   -0.256278507	    0.156700103	   -0.071277261	   -0.041526805	   -0.133891020	   -0.063353937
   -0.121267264	   -0.005623088	   -0.258805649	    0.158684920	   -0.074750336	   -0.044199230	   -0.137945981	   -0.067555589
   -0.123830239	   -0.007625040	   -0.264546776	    0.161310717	   -0.077732946	   -0.045490843	   -0.145222652	   -0.072519956
   -0.128557082	   -0.006214540	   -0.272681838	    0.164294068	   -0.079859198	   -0.046633951	   -0.145472788	   -0.070451361
   -0.131416773	   -0.006444648	   -0.281831160	    0.167586000	   -0.084259499	   -0.047506559	   -0.144638124	   -0.069489117
   -0.137519222	   -0.001390155	   -0.292372209	    0.169627238	   -0.086278819	   -0.049045493	   -0.151108629	   -0.074003169
   -0.140552695	   -0.004648858	   -0.304724312	    0.176351363	   -0.090784499	   -0.049753998	   -0.160541483	   -0.067593540
   -0.150442589	   -0.003518963	   -0.319650101	    0.179009856	   -0.095530879	   -0.050761768	   -0.159635139	   -0.063462532
   -0.158823633	   -0.006778146	   -0.335291904	    0.185810374	   -0.103303041	   -0.053572605	   -0.168124933	   -0.062361032
   -0.162805633	   -0.003064858	   -0.348260380	    0.194688588	   -0.105826391	   -0.057487482	   -0.186560200	   -0.071904373
   -0.168446258	   -0.002537930	   -0.354439984	    0.194880408	   -0.110358040	   -0.060598449	   -0.185660333	   -0.076155721
   -0.172755727	    0.001163661	   -0.356357071	    0.200845431	   -0.115267985	   -0.065219663	   -0.195970584	   -0.084685609
   -0.180784681	   -0.005383984	   -0.357319370	    0.204503261	   -0.121449876	   -0.068589496	   -0.201778839	   -0.076499801
   -0.185509938	   -0.004431920	   -0.358230534	    0.206570575	   -0.125685287	   -0.072101752	   -0.206625520	   -0.081016049
   -0.190574247	   -0.002343877	   -0.358290898	    0.211123628	   -0.126805408	   -0.076257226	   -0.210790360	   -0.089269542
   -0.190107382	   -0.002596808	   -0.360766170	    0.219748804	   -0.136028746	   -0.081549997	   -0.233997802	   -0.085746228
   -0.203119947	   -0.003022941	   -0.360650519	    0.223511387	   -0.141466020	   -0.086473181	   -0.230627794	   -0.089037843
   -0.211104433	    0.001043133	   -0.362148500	    0.227236504	   -0.147708401	   -0.092417871	   -0.246320844	   -0.096227812
   -0.217616285	   -0.001424874	   -0.366359690	    0.235965223	   -0.156952958	   -0.097176261	   -0.258665841	   -0.084734761
   -0.223695108	   -0.000912181	   -0.380135146	    0.245926110	   -0.166082684	   -0.102653942	   -0.275770491	   -0.077101766
   -0.229870314	   -0.006717221	   -0.398541556	    0.262874233	   -0.184209344	   -0.108264747	   -0.305437992	   -0.051767755
   -0.241975423	   -0.006549291	   -0.416916556	    0.270205032	   -0.195008462	   -0.113864128	   -0.320052026	   -0.044736487
   -0.240553872	   -0.010244105	   -0.431081499	    0.282405653	   -0.210807212	   -0.120198739	   -0.344613877	   -0.033551877
   -0.244317872	   -0.015131150	   -0.436895922	    0.283301956	   -0.220144920	   -0.123111709	   -0.349124790	   -0.018162990
   -0.252130972	   -0.014218627	   -0.437729319	    0.283208284	   -0.224136391	   -0.124775021	   -0.345196059	   -0.023403989
   -0.253123840	   -0.018914778	   -0.438978605	    0.282252931	   -0.229001060	   -0.126228690	   -0.351766922	   -0.018306819
   -0.257662411	   -0.019552121	   -0.440978926	    0.281500117	   -0.230526512	   -0.127584068	   -0.355375439	   -0.013004107
   -0.271562588	   -0.024418560	   -0.444331964	    0.280147025	   -0.237880099	   -0.131100294	   -0.355251317	   -0.000354230
   -0.283450702	   -0.032072535	   -0.448720513	    0.283947125	   -0.247840857	   -0.134955545	   -0.369882825	    0.016885842
   -0.295978686	   -0.022002672	   -0.453331332	    0.286799303	   -0.246772400	   -0.142134710	   -0.386875679	   -0.003839586
   -0.304510629	   -0.021372042	   -0.456504945	    0.293047088	   -0.252202366	   -0.148215997	   -0.405251953	   -0.017252933
   -0.313964044	   -0.025800955	   -0.459544435	    0.291094317	   -0.256435173	   -0.151211284	   -0.411391283	   -0.011030294
   -0.317075389	   -0.025432686	   -0.462394467	    0.292011077	   -0.263103954	   -0.155521932	   -0.426684922	   -0.006154326
   -0.324991999	   -0.022773383	   -0.466968269	    0.287366563	   -0.265830290	   -0.158123952	   -0.433882129	   -0.021105447
   -0.335765645	   -0.027100637	   -0.469517034	    0.283615463	   -0.269737593	   -0.157697245	   -0.438494009	   -0.001751476
   -0.345685975	   -0.027975933	   -0.472578100	    0.278637949	   -0.272339514	   -0.161082774	   -0.437738245	   -0.011776735
   -0.355733830	   -0.029689666	   -0.476280247	    0.277923945	   -0.284562737	   -0.164342683	   -0.447863142	   -0.003041089
   -0.350616955	   -0.024782352	   -0.479064897	    0.284707697	   -0.292069176	   -0.167753932	   -0.477420742	   -0.009895194
   -0.357175354	   -0.026371727	   -0.478735762	    0.283283052	   -0.294607288	   -0.168405604	   -0.474339252	   -0.010035448
   -0.359055953	   -0.032308696	   -0.478304003	    0.282736816	   -0.303935182	   -0.168731683	   -0.476460963	    0.001237543
   -0.353707543	   -0.032118354	   -0.479099445	    0.285306176	   -0.309029679	   -0.169147324	   -0.492595737	    0.002464246
   -0.362824522	   -0.029765410	   -0.477080380	    0.282995410	   -0.311533208	   -0.168861426	   -0.482563874	    0.002472452
   -0.363919898	   -0.033097770	   -0.477216047	    0.280937259	   -0.315659013	   -0.169209377	   -0.483908918	    0.005060502
   -0.360369382	   -0.039497005	   -0.477384292	    0.283732756	   -0.323815262	   -0.169549166	   -0.497670151	    0.021350423
   -0.358574784	   -0.031701893	   -0.476784550	    0.284650250	   -0.322277549	   -0.169068135	   -0.504907041	    0.013837132
   -0.356814390	   -0.032670477	   -0.476820553	    0.285373661	   -0.328614091	   -0.171042302	   -0.515357599	    0.009632540
   -0.351515175	   -0.030236012	   -0.477278222	    0.292521547	   -0.335896702	   -0.172755935	   -0.530598974	    0.002376339
   -0.351189819	   -0.025647923	   -0.474986113	    0.291260173	   -0.335217301	   -0.172755212	   -0.531103147	   -0.005644230
   -0.347277575	   -0.014326638	   -0.473349447	    0.296559002	   -0.331156754	   -0.174241969	   -0.538459975	   -0.037263165
   -0.341512951	   -0.011765217	   -0.472280249	    0.295717311	   -0.330729101	   -0.174978853	   -0.551324711	   -0.058519196
   -0.339805558	   -0.007298502	   -0.470301025	    0.300971702	   -0.330782067	   -0.174667451	   -0.549324218	   -0.057512734
   -0.342049191	   -0.016287989	   -0.468602342	    0.294979976	   -0.336117474	   -0.172715289	   -0.544908134	   -0.038725743
   -0.346646658	   -0.018060734	   -0.468365060	    0.288974949	   -0.335897636	   -0.172083907	   -0.530605677	   -0.035998288
   -0.338112274	   -0.014946670	   -0.468835697	    0.298562027	   -0.337310819	   -0.174224161	   -0.550676788	   -0.045723015
   -0.343651037	   -0.015129313	   -0.468304772	    0.293368322	   -0.332459653	   -0.172611892	   -0.535538632	   -0.044821473
   -0.343967003	   -0.020632882	   -0.468195797	    0.294116917	   -0.337057395	   -0.171468697	   -0.535021894	   -0.027184087
   -0.349820808	   -0.023028828	   -0.467631823	    0.288491806	   -0.334606957	   -0.171539375	   -0.521888156	   -0.027635571
   -0.341533775	   -0.014285280	   -0.468345758	    0.295171421	   -0.329946942	   -0.172522533	   -0.534256103	   -0.045323110
   -0.334592824	   -0.010952663	   -0.469334773	    0.298978279	   -0.326099174	   -0.173808382	   -0.545699971	   -0.058052405
   -0.338092731	   -0.010537438	   -0.469411090	    0.299932729	   -0.326183716	   -0.173018820	   -0.537283592	   -0.050084755
   -0.333984881	   -0.004005077	   -0.469458796	    0.303122706	   -0.321523266	   -0.174057700	   -0.542330276	   -0.062538382
   -0.327730044	   -0.011571995	   -0.470871018	    0.304730259	   -0.325268565	   -0.173217024	   -0.551555998	   -0.050613185
   -0.330126382	   -0.008798692	   -0.470726339	    0.304948256	   -0.322916748	   -0.174679132	   -0.543010165	   -0.061138491
   -0.334053437	   -0.011452919	   -0.470387621	    0.302208821	   -0.323887434	   -0.172857340	   -0.533930867	   -0.046829170
   -0.338083111	   -0.013021679	   -0.469696172	    0.296872857	   -0.318962854	   -0.171878485	   -0.526160029	   -0.049152403
   -0.329574547	   -0.001463200	   -0.470624365	    0.304783734	   -0.313332622	   -0.173460022	   -0.542169251	   -0.073647954
   -0.333409030	   -0.007861075	   -0.470609729	    0.303076056	   -0.316137330	   -0.174415367	   -0.532596198	   -0.068402751
   -0.328234495	   -0.012104602	   -0.471431484	    0.306550649	   -0.321869075	   -0.173662481	   -0.539051473	   -0.049388319
   -0.332675659	   -0.010683839	   -0.470114705	    0.302246594	   -0.316794865	   -0.172901644	   -0.532271596	   -0.052911555
   -0.327610174	   -0.010180982	   -0.471200733	    0.307015819	   -0.319385945	   -0.173772568	   -0.537895150	   -0.054784149
   -0.323758975	   -0.005530065	   -0.471336322	    0.308925273	   -0.314102478	   -0.174078642	   -0.545141193	   -0.066711043
   -0.331479034	   -0.010627705	   -0.470725189	    0.302380114	   -0.310185442	   -0.171697124	   -0.528489781	   -0.053370207
   -0.323161890	   -0.006989647	   -0.471527491	    0.310346180	   -0.310952112	   -0.172657068	   -0.543287981	   -0.052149828
   -0.330394302	   -0.010777624	   -0.471139839	    0.304198499	   -0.311829727	   -0.172091369	   -0.526262831	   -0.048616608
   -0.327946066	   -0.006688380	   -0.471440298	    0.307929290	   -0.310258020	   -0.173267010	   -0.531636911	   -0.062984250
   -0.327251288	   -0.008796862	   -0.471387513	    0.306899229	   -0.313621809	   -0.172971822	   -0.532676047	   -0.056089875
   -0.337887626	   -0.018797945	   -0.470285823	    0.298841806	   -0.314564288	   -0.170230656	   -0.511675278	   -0.029961168
   -0.328195903	   -0.015709120	   -0.470480848	    0.306643813	   -0.314975066	   -0.171043029	   -0.530529429	   -0.037041362
   -0.327732042	   -0.013639226	   -0.469133145	    0.302764251	   -0.313592446	   -0.170343293	   -0.526870509	   -0.037888082
   -0.326093839	   -0.011950856	   -0.468985659	    0.309327816	   -0.319151464	   -0.171229608	   -0.527659289	   -0.039542943
   -0.333712445	   -0.015906971	   -0.468735097	    0.301263860	   -0.318641129	   -0.171097963	   -0.513230627	   -0.037080828
   -0.323204363	   -0.009939863	   -0.468696188	    0.307613752	   -0.311821032	   -0.171227861	   -0.532929026	   -0.046155605
   -0.319941603	   -0.010001949	   -0.469677264	    0.312806096	   -0.317564451	   -0.171886981	   -0.543174392	   -0.044098355
   -0.327772289	   -0.016789924	   -0.468854689	    0.308224273	   -0.322141376	   -0.171662195	   -0.531319033	   -0.035614898
   -0.331175007	   -0.018591632	   -0.468407841	    0.300023664	   -0.322521231	   -0.169709057	   -0.526355293	   -0.024858268
   -0.330282492	   -0.016987326	   -0.468302222	    0.300929085	   -0.322046338	   -0.169210671	   -0.531806200	   -0.027890744
   -0.330372557	   -0.012998992	   -0.468309953	    0.305128105	   -0.322710036	   -0.170446470	   -0.529990856	   -0.033659946
   -0.329339364	   -0.012041387	   -0.468459785	    0.303674014	   -0.326309867	   -0.171493348	   -0.535281120	   -0.035156028
   -0.327788748	   -0.016957515	   -0.468430270	    0.305507970	   -0.329983473	   -0.171523440	   -0.544778792	   -0.029148849
   -0.332627101	   -0.017754512	   -0.467629802	    0.299535251	   -0.328464337	   -0.170209696	   -0.536350910	   -0.026658633
   -0.331959930	   -0.021259085	   -0.468312613	    0.300048947	   -0.333028522	   -0.171332402	   -0.536072153	   -0.025353551
   -0.323824480	   -0.014836184	   -0.468682716	    0.305650569	   -0.332237872	   -0.171981127	   -0.553450035	   -0.031742872
   -0.333712151	   -0.019134087	   -0.467632262	    0.299942144	   -0.331052483	   -0.170119239	   -0.535376449	   -0.022017588
   -0.334666144	   -0.021549843	   -0.467181124	    0.300000933	   -0.332578376	   -0.169919136	   -0.537077295	   -0.011844664
   -0.335769227	   -0.019378815	   -0.467253850	    0.300863184	   -0.331471837	   -0.169935797	   -0.530937491	   -0.019975951
   -0.328605421	   -0.012040599	   -0.467983098	    0.304083017	   -0.329626260	   -0.171444692	   -0.546123318	   -0.036149135
   -0.328783319	   -0.011417484	   -0.468438272	    0.304780489	   -0.332729793	   -0.173271140	   -0.545740252	   -0.046987540
   -0.330809177	   -0.007321681	   -0.468191367	    0.307654508	   -0.331338285	   -0.173407488	   -0.544861043	   -0.043912855
   -0.337540701	   -0.018540561	   -0.467013086	    0.296997977	   -0.336110147	   -0.170674479	   -0.536085523	   -0.020480700
   -0.338003830	   -0.015516585	   -0.467020600	    0.299105699	   -0.334115110	   -0.170654387	   -0.533070711	   -0.023655531
   -0.330406504	   -0.013286783	   -0.468076621	    0.299889009	   -0.337248087	   -0.172581764	   -0.548715561	   -0.034457192
   -0.333968596	   -0.021021106	   -0.467492957	    0.303540433	   -0.341315715	   -0.172016100	   -0.545076818	   -0.016520234
   -0.340331407	   -0.022960169	   -0.466564774	    0.298457991	   -0.341364548	   -0.171196271	   -0.534372067	   -0.018952242
   -0.343302913	   -0.024574083	   -0.466442960	    0.297700262	   -0.344882317	   -0.171473007	   -0.527951533	   -0.010217268
   -0.339363997	   -0.024452888	   -0.466968987	    0.296888432	   -0.345878096	   -0.171287807	   -0.541776825	   -0.008547245
   -0.334854185	   -0.026610196	   -0.467133503	    0.302457219	   -0.348790303	   -0.171621280	   -0.549532129	    0.000519346
   -0.338315510	   -0.026001705	   -0.466638302	    0.295561834	   -0.344721574	   -0.169799605	   -0.540560844	   -0.000497440
   -0.338870615	   -0.025806505	   -0.465058740	    0.295559225	   -0.346298153	   -0.168443294	   -0.539387635	    0.004880929
   -0.333681372	   -0.020903727	   -0.464061125	    0.296362362	   -0.347592027	   -0.169092575	   -0.551874816	   -0.007786291
   -0.334133877	   -0.021941688	   -0.463228664	    0.299484044	   -0.346635540	   -0.168489479	   -0.551820073	   -0.007798776
   -0.328429548	   -0.026556812	   -0.462824175	    0.299508901	   -0.351241706	   -0.167215957	   -0.564302437	    0.010196876
   -0.336930164	   -0.031427222	   -0.459837266	    0.297217747	   -0.350532842	   -0.165718275	   -0.548354975	    0.019683430
   -0.330897405	   -0.025255357	   -0.458218099	    0.297373320	   -0.352794126	   -0.166240085	   -0.558212620	    0.006193594
   -0.336642180	   -0.027742596	   -0.456097766	    0.289657192	   -0.355180967	   -0.164566712	   -0.541451979	    0.007491048
   -0.332532381	   -0.029481977	   -0.455071894	    0.290448095	   -0.359812611	   -0.164558019	   -0.539465165	    0.012442264
   -0.332936578	   -0.033791865	   -0.454209764	    0.282168084	   -0.358797630	   -0.161046865	   -0.525551497	    0.032552828
   -0.324102571	   -0.027612697	   -0.454613554	    0.285367903	   -0.356162025	   -0.162611289	   -0.528607705	    0.002912835
   -0.321278744	   -0.032649896	   -0.453430646	    0.286054880	   -0.356448731	   -0.160603556	   -0.524757581	    0.015296840
   -0.314010747	   -0.031202885	   -0.452160499	    0.284789660	   -0.357461787	   -0.159459265	   -0.529333827	    0.016592242
   -0.313897916	   -0.025969522	   -0.449356298	    0.286547714	   -0.353635208	   -0.158967003	   -0.519535746	    0.006266799
   -0.313482086	   -0.030369719	   -0.446784811	    0.279302981	   -0.351135248	   -0.156164939	   -0.507676626	    0.012386976
   -0.308958620	   -0.026603847	   -0.443880744	    0.279297075	   -0.346246682	   -0.154765235	   -0.502875247	    0.000414699
   -0.306565141	   -0.019536556	   -0.440859155	    0.280887227	   -0.344941059	   -0.154392011	   -0.494886038	   -0.009886090
   -0.307327634	   -0.029940727	   -0.436079983	    0.272952658	   -0.347116804	   -0.148662737	   -0.481854166	    0.024629407
   -0.310799355	   -0.033555551	   -0.429116560	    0.265243408	   -0.345096436	   -0.145120004	   -0.455880496	    0.026044864
   -0.302352334	   -0.022290738	   -0.425358862	    0.269449172	   -0.335855773	   -0.144325210	   -0.457873283	    0.002188253
   -0.306172378	   -0.033595494	   -0.419721980	    0.261419317	   -0.339177732	   -0.138441085	   -0.437645317	    0.027555848
   -0.300988992	   -0.022494174	   -0.414577742	    0.261757157	   -0.332882041	   -0.137232014	   -0.430731623	   -0.001286029
   -0.299485144	   -0.032199970	   -0.408802948	    0.256416663	   -0.334895763	   -0.131713336	   -0.422393364	    0.031484696
   -0.299341738	   -0.032678055	   -0.402617840	    0.251546179	   -0.330867957	   -0.127754957	   -0.406342598	    0.024516296
   -0.289591801	   -0.029868314	   -0.398626559	    0.253175113	   -0.328841707	   -0.124351757	   -0.415975776	    0.028485727
   -0.293270365	   -0.034390789	   -0.390356753	    0.249089240	   -0.327646965	   -0.119419269	   -0.390420641	    0.046409896
   -0.286929416	   -0.029707034	   -0.384995307	    0.250929141	   -0.323278871	   -0.117488570	   -0.389531558	    0.043477044
   -0.284711148	   -0.033277188	   -0.377793248	    0.243471401	   -0.319266459	   -0.114409808	   -0.372047348	    0.038726818
   -0.277444236	   -0.024582870	   -0.371666035	    0.239665830	   -0.311308959	   -0.113319878	   -0.366767568	    0.015443070
   -0.276155440	   -0.024364482	   -0.363557201	    0.237686995	   -0.305029727	   -0.110092831	   -0.343307295	    0.016419107
   -0.271949418	   -0.023800077	   -0.356445620	    0.231229232	   -0.298286139	   -0.108209164	   -0.333620619	    0.007079465
   -0.269770322	   -0.028273067	   -0.348280272	    0.226202776	   -0.297093533	   -0.104899748	   -0.316072424	    0.021439995
   -0.263231419	   -0.025299782	   -0.342949954	    0.225944336	   -0.288962318	   -0.103162235	   -0.310781037	    0.013409898
   -0.259346237	   -0.025400950	   -0.337924040	    0.221840064	   -0.286252365	   -0.100710602	   -0.294255395	    0.016805219
   -0.253036107	   -0.016136308	   -0.332502186	    0.214870729	   -0.273022771	   -0.098407033	   -0.277969579	   -0.018994799
   -0.252381684	   -0.024106851	   -0.326995654	    0.207950445	   -0.268700806	   -0.093922348	   -0.258865761	   -0.001458197
   -0.249177864	   -0.022461449	   -0.318395375	    0.199658151	   -0.261652389	   -0.089889201	   -0.239112514	    0.006239778
   -0.246469841	   -0.022913470	   -0.311240197	    0.191066646	   -0.249310247	   -0.085542972	   -0.214312961	   -0.005431921
   -0.240645422	   -0.018565553	   -0.301692453	    0.189070291	   -0.240991230	   -0.081849552	   -0.197302071	   -0.001618907
   -0.237364537	   -0.015999553	   -0.285057399	    0.173533132	   -0.229573331	   -0.078628473	   -0.173714273	   -0.015973400
   -0.233524819	   -0.013953127	   -0.263896960	    0.161436370	   -0.217690285	   -0.075238992	   -0.144591918	   -0.027190027
   -0.222299722	   -0.013495390	   -0.243021087	    0.156593454	   -0.205134094	   -0.073820380	   -0.133459873	   -0.050249472
   -0.210163571	   -0.010574917	   -0.218509647	    0.149314920	   -0.188133259	   -0.070259521	   -0.121934169	   -0.066674564
   -0.195406391	   -0.009608265	   -0.191692749	    0.146478300	   -0.170601204	   -0.068788547	   -0.110531424	   -0.082017745
   -0.179472783	   -0.018003151	   -0.164907800	    0.136905300	   -0.154385667	   -0.064441061	   -0.102541431	   -0.076710554
   -0.163976943	   -0.018493543	   -0.138467925	    0.135440861	   -0.134868566	   -0.061095190	   -0.095187113	   -0.091423337
   -0.146144382	   -0.019491560	   -0.115048804	    0.130472459	   -0.115685154	   -0.059044427	   -0.094953874	   -0.099473236
   -0.131091033	   -0.022091878	   -0.095776004	    0.125880164	   -0.096141848	   -0.055111762	   -0.088244465	   -0.097928451
   -0.116702755	   -0.017774385	   -0.082530130	    0.126621686	   -0.085455649	   -0.052541347	   -0.095518955	   -0.089275931
   -0.107888798	   -0.021802719	   -0.072284556	    0.122035799	   -0.074803047	   -0.048555471	   -0.086328844	   -0.085635302
   -0.097048253	   -0.017900326	   -0.066976965	    0.116308664	   -0.065379184	   -0.044080492	   -0.085708424	   -0.078369598
   -0.089508213	   -0.020341563	   -0.061941228	    0.114247113	   -0.058996501	   -0.041386019	   -0.083184099	   -0.075003104
   -0.083248568	   -0.017961128	   -0.056994810	    0.109067126	   -0.054561577	   -0.038862667	   -0.079751357	   -0.072898420
   -0.077355829	   -0.016613986	   -0.051363469	    0.107349608	   -0.050243829	   -0.035960873	   -0.080187501	   -0.072019665
   -0.071205553	   -0.017859750	   -0.045722671	    0.101549073	   -0.046392473	   -0.032403192	   -0.071706103	   -0.062361572
   -0.066428482	   -0.018717205	   -0.041345278	    0.097741993	   -0.043538653	   -0.030091893	   -0.065483341	   -0.062714930
   -0.058224287	   -0.017913926	   -0.036288808	    0.093288260	   -0.039313152	   -0.027035367	   -0.063900012	   -0.059953865
   -0.051327619	   -0.016238011	   -0.031516588	    0.088008586	   -0.035729056	   -0.023690377	   -0.058300408	   -0.058763164
   -0.047813785	   -0.014279702	   -0.028838843	    0.082841345	   -0.034210937	   -0.020885473	   -0.055943435	   -0.055705020
   -0.043531260	   -0.012373861	   -0.026743783	    0.080174125	   -0.030028178	   -0.018579057	   -0.055205891	   -0.053458830
   -0.038226525	   -0.012039878	   -0.024188076	    0.075243535	   -0.027180528	   -0.016507072	   -0.053865136	   -0.051277911
   -0.034169540	   -0.011403254	   -0.020819725	    0.070183881	   -0.023105714	   -0.013954877	   -0.050673218	   -0.045672917
   -0.030601960	   -0.010119934	   -0.016591861	    0.066949021	   -0.021188287	   -0.012576585	   -0.049983972	   -0.044809637
   -0.028480662	   -0.008264569	   -0.012906309	    0.064737970	   -0.021156414	   -0.011915853	   -0.050648433	   -0.041309442
   -0.026007491	   -0.009200230	   -0.006085895	    0.062618222	   -0.019255660	   -0.011623019	   -0.046953693	   -0.040658688
   -0.024312987	   -0.008361814	   -0.001079700	    0.059500520	   -0.017439881	   -0.010382373	   -0.044536213	   -0.034232371
   -0.022327747	   -0.008401095	    0.003356031	    0.056942258	   -0.016566905	   -0.009763282	   -0.043636775	   -0.033553123
   -0.019963409	   -0.009080830	    0.006841905	    0.055181727	   -0.015282318	   -0.009312610	   -0.041137557	   -0.032712471
   -0.018042528	   -0.007227084	    0.009743115	    0.052243927	   -0.013975696	   -0.008214975	   -0.039092472	   -0.031174960
   -0.016368100	   -0.008021242	    0.011828624	    0.049332042	   -0.012318908	   -0.007494988	   -0.037056504	   -0.028747046
   -0.014905214	   -0.007171694	    0.013391282	    0.047704679	   -0.011466188	   -0.006663963	   -0.037675278	   -0.028053271
   -0.013504028	   -0.007426103	    0.015110129	    0.046668189	   -0.010207889	   -0.006184027	   -0.036298714	   -0.028039683
   -0.013339143	   -0.007212326	    0.016318803	    0.046163427	   -0.010158168	   -0.005870389	   -0.034867512	   -0.024208755
   -0.013551273	   -0.006862262	    0.017120107	    0.045577759	   -0.009759943	   -0.006049126	   -0.034458013	   -0.025014649
   -0.013214733	   -0.007878256	    0.019590875	    0.044784324	   -0.009636053	   -0.005870295	   -0.036784062	   -0.025609754
   -0.012479875	   -0.007009142	    0.022329472	    0.042210156	   -0.009876416	   -0.005483754	   -0.034731715	   -0.025384703
   -0.010848213	   -0.007870674	    0.025142565	    0.040424625	   -0.008228241	   -0.005075870	   -0.032597718	   -0.024996196
   -0.010324272	   -0.005537941	    0.028067854	    0.038606503	   -0.006945864	   -0.004645286	   -0.033201533	   -0.024086203
   -0.008810953	   -0.005952609	    0.030260251	    0.037013692	   -0.006046533	   -0.004054265	   -0.029931185	   -0.023712276
   -0.007731887	   -0.005260353	    0.031502285	    0.032731961	   -0.005887088	   -0.002773932	   -0.025218712	   -0.022139425
   -0.006051771	   -0.004523432	    0.032151794	    0.032244878	   -0.004671714	   -0.002027282	   -0.027709966	   -0.022038117
   -0.005831353	   -0.004690956	    0.034258310	    0.030369335	   -0.004440627	   -0.001224830	   -0.025468638	   -0.018666488
   -0.005192153	   -0.004215502	    0.037301519	    0.027801401	   -0.003150457	   -0.000477458	   -0.022211681	   -0.018096433
   -0.004814110	   -0.004615488	    0.039099431	    0.027238323	   -0.002769222	   -0.000337828	   -0.022220223	   -0.017295378
   -0.004241527	   -0.004577000	    0.042237044	    0.026207201	   -0.003045971	   -0.000108584	   -0.022063808	   -0.015683343
   -0.003721107	   -0.004782762	    0.047582210	    0.025155857	   -0.002566347	   -0.000645036	   -0.021479183	   -0.017687412
   -0.003460386	   -0.004021587	    0.055709911	    0.023205331	   -0.002400539	   -0.000680507	   -0.019025529	   -0.013304319
   -0.003064262	   -0.004077926	    0.064101764	    0.020813546	   -0.002300049	   -0.000992910	   -0.018861998	   -0.013899301
   -0.002823797	   -0.004084818	    0.071328863	    0.018353584	   -0.002456187	   -0.001169268	   -0.016200264	   -0.011741926
   -0.001940707	   -0.003734954	    0.076110679	    0.016765678	   -0.001366640	   -0.000759155	   -0.013690124	   -0.007972623
   -0.001783441	   -0.003541834	    0.079608601	    0.015916134	   -0.001257281	   -0.000872556	   -0.012728526	   -0.006586250
   -0.001357295	   -0.002623385	    0.081605167	    0.015433979	   -0.000763258	   -0.001035197	   -0.013309533	   -0.008358262
   -0.001316621	   -0.002950664	    0.081904875	    0.015055771	   -0.000958309	   -0.001023668	   -0.012927103	   -0.007570433
   -0.001241074	   -0.003075334	    0.082007059	    0.015344181	   -0.000673710	   -0.001024196	   -0.013114365	   -0.007767634
   -0.001036348	   -0.002887016	    0.081769501	    0.015351665	   -0.000678005	   -0.000868086	   -0.014264938	   -0.006744139
   -0.001142063	   -0.003156513	    0.081859350	    0.015540304	   -0.000674670	   -0.001074010	   -0.013112141	   -0.007568267
   -0.001005427	   -0.003281347	    0.081906246	    0.015350396	   -0.000289806	   -0.001125372	   -0.012724660	   -0.007775481
   -0.001054547	   -0.003047973	    0.081759359	    0.015444375	   -0.000194281	   -0.000880813	   -0.013298121	   -0.007363008
   -0.001014210	   -0.002807193	    0.081656341	    0.015255829	   -0.000379025	   -0.000879436	   -0.012915808	   -0.006967312
   -0.000994820	   -0.002604384	    0.081600759	    0.015158408	   -0.000471058	   -0.000736199	   -0.012725343	   -0.006968157
   -0.000830119	   -0.002495752	    0.083140918	    0.014393803	   -0.000464350	   -0.000658064	   -0.011960274	   -0.006780129
   -0.000995242	   -0.001895449	    0.084640054	    0.013904344	   -0.000553072	   -0.000727730	   -0.012547076	   -0.007761011
   -0.000820706	   -0.001627747	    0.084747383	    0.013527602	   -0.000357063	   -0.000713957	   -0.012927774	   -0.006950202
   -0.000750651	   -0.002026624	    0.084740560	    0.013529746	   -0.000359905	   -0.000720045	   -0.012158431	   -0.006969671
   -0.000774402	   -0.001868577	    0.084692154	    0.013815728	   -0.000069678	   -0.000772469	   -0.012347342	   -0.007363452
   -0.000686658	   -0.001753284	    0.084792536	    0.013528750	    0.000027037	   -0.000670107	   -0.012539402	   -0.007157995
   -0.000429362	   -0.001832178	    0.084845800	    0.013918497	   -0.000169338	   -0.000617470	   -0.012922613	   -0.006950105
   -0.000972170	   -0.001800532	    0.084792245	    0.013813190	    0.000122867	   -0.000475195	   -0.012340671	   -0.006565369
   -0.000506650	   -0.002156095	    0.084844010	    0.013627510	    0.000113893	   -0.000621264	   -0.012729780	   -0.007158057
   -0.000950332	   -0.001430168	    0.084738799	    0.013524753	   -0.000156793	   -0.000622800	   -0.012156060	   -0.006963818
   -0.000653617	   -0.001720079	    0.084792059	    0.013724531	    0.000222814	   -0.000669637	   -0.012148961	   -0.006765649
   -0.000669131	   -0.001710455	    0.084741349	    0.013627296	   -0.000259293	   -0.000620215	   -0.012347777	   -0.006761894
   -0.000869017	   -0.001716418	    0.084603620	    0.013625595	   -0.000459739	   -0.000366252	   -0.013498757	   -0.005742778
   -0.000617587	   -0.002159021	    0.084751139	    0.013535300	   -0.000174853	   -0.000612184	   -0.012920789	   -0.006157332
   -0.000690593	   -0.001749440	    0.084792282	    0.013720983	   -0.000165200	   -0.000670364	   -0.012540437	   -0.007157975
   -0.000732758	   -0.002423556	    0.084792906	    0.013906933	   -0.000181725	   -0.000678084	   -0.012927943	   -0.007957848
   -0.000462561	   -0.002225303	    0.084786890	    0.013914539	    0.000019987	   -0.000778279	   -0.012156354	   -0.007967936
   -0.000466870	   -0.002150795	    0.084741240	    0.013437638	   -0.000075225	   -0.000720746	   -0.012349029	   -0.007165094
   -0.000490485	   -0.001953315	    0.084794544	    0.013726032	    0.000023883	   -0.000767102	   -0.012538032	   -0.007159096
   -0.000391547	   -0.002034072	    0.084643095	    0.013919658	    0.000021544	   -0.000624658	   -0.012535602	   -0.006959878
   -0.000315266	   -0.001516483	    0.084694855	    0.013344427	    0.000028931	   -0.000567749	   -0.012922939	   -0.006745752
   -0.000251788	   -0.001952414	    0.084785973	    0.013536408	    0.000024892	   -0.000576332	   -0.012154862	   -0.007164823
   -0.000095221	   -0.002316269	    0.084691251	    0.014117076	    0.000015370	   -0.000478672	   -0.012533254	   -0.006761851
   -0.000457024	   -0.001790985	    0.085085651	    0.013531255	    0.000028162	   -0.000670225	   -0.012157124	   -0.007563423
   -0.000413666	   -0.002069803	    0.085291894	    0.013628674	   -0.000268987	   -0.000661370	   -0.012735779	   -0.007355759
   -0.000413221	   -0.001677195	    0.085292404	    0.013628696	    0.000123192	   -0.000660825	   -0.012730854	   -0.007350763
   -0.000615005	   -0.001604724	    0.085396164	    0.013820875	    0.000124850	   -0.000556119	   -0.012725146	   -0.006552980
   -0.000563095	   -0.001609246	    0.085342518	    0.013919188	    0.000417142	   -0.000609533	   -0.012144260	   -0.006564008
   -0.000508445	   -0.001689297	    0.085246581	    0.013631247	    0.000315424	   -0.000508893	   -0.012722849	   -0.006353820
   -0.000318586	   -0.001650616	    0.085198499	    0.013348167	    0.000218834	   -0.000455394	   -0.012915785	   -0.005949347
   -0.000416118	   -0.000968747	    0.085245271	    0.013152126	    0.000231468	   -0.000405560	   -0.012918087	   -0.006140665
   -0.000191195	   -0.001805931	    0.085344141	    0.013541360	    0.000218662	   -0.000605589	   -0.012533580	   -0.006556501
   -0.000394646	   -0.002010036	    0.085346028	    0.013729741	    0.000407059	   -0.000607446	   -0.012529932	   -0.006560383
   -0.000549351	   -0.001622883	    0.085349598	    0.013544379	    0.000224662	   -0.000397277	   -0.012137799	   -0.004568155
   -0.000242480	   -0.001761633	    0.085337468	    0.013634722	    0.000319227	   -0.000711360	   -0.011958442	   -0.007166103
   -0.000408436	   -0.001371046	    0.085299856	    0.013636264	    0.000322613	   -0.000649102	   -0.012721711	   -0.006149594
   -0.000349028	   -0.001526289	    0.085249276	    0.013824962	    0.000316300	   -0.000606071	   -0.013108186	   -0.006742217
   -0.000230701	   -0.001638554	    0.085248784	    0.013732507	    0.000028031	   -0.000800755	   -0.012921443	   -0.006946157
   -0.000310602	   -0.001620400	    0.085351542	    0.013832339	    0.000509688	   -0.000499935	   -0.012714876	   -0.005553580
   -0.000432774	   -0.001779971	    0.085446022	    0.013448140	    0.000319246	   -0.000498434	   -0.011948319	   -0.005171912
   -0.000314601	   -0.001618414	    0.085303128	    0.013159703	    0.000412590	   -0.000545440	   -0.012912027	   -0.005549858
   -0.000097240	   -0.001572417	    0.085390948	    0.013731203	    0.000799089	   -0.000562793	   -0.012528353	   -0.007151412
   -0.000222378	   -0.001296240	    0.085354473	    0.013547990	    0.000226828	   -0.000590526	   -0.012911218	   -0.005345690
    0.000020076	   -0.001821697	    0.085488462	    0.013359236	    0.000610350	   -0.000552590	   -0.011371230	   -0.005580104
   -0.000119682	   -0.001218557	    0.085400255	    0.013354537	    0.000419745	   -0.000446479	   -0.012910924	   -0.005543612
   -0.000351460	   -0.000941037	    0.085308718	    0.013355059	    0.000230593	   -0.000437652	   -0.013293172	   -0.004735574
   -0.000202880	   -0.001305911	    0.085399178	    0.013449220	    0.000707377	   -0.000350848	   -0.012713391	   -0.005349484
   -0.000126381	   -0.001902266	    0.085493136	    0.013067674	    0.000508855	   -0.000450348	   -0.011949237	   -0.005371299
   -0.000437102	   -0.001502170	    0.085307145	    0.013446993	    0.000509834	   -0.000543177	   -0.013100206	   -0.005345750
   -0.000383221	   -0.001696232	    0.085347758	    0.013350302	    0.000220557	   -0.000401647	   -0.012527819	   -0.005359118
   -0.000376539	   -0.001694814	    0.085353792	    0.013440750	    0.000502587	   -0.000501476	   -0.013490321	   -0.006338061
   -0.000285541	   -0.001418938	    0.085495429	    0.013350364	    0.000417808	   -0.000351815	   -0.012526558	   -0.005554633
   -0.000101105	   -0.001306841	    0.085452800	    0.013456788	    0.000322912	   -0.000292028	   -0.012712523	   -0.004351534
   -0.000259025	   -0.001333357	    0.085355820	    0.013544546	    0.000223396	   -0.000591852	   -0.013297946	   -0.005737794
   -0.000230929	   -0.001502589	    0.085402069	    0.013063828	    0.000508790	   -0.000347504	   -0.013102254	   -0.005344644
   -0.000131230	   -0.001180363	    0.085452887	    0.013067674	    0.000323032	   -0.000391346	   -0.013103517	   -0.005140420
   -0.000428498	   -0.001629367	    0.085407819	    0.013065145	    0.000506708	   -0.000340738	   -0.013097362	   -0.004549220
   -0.000631594	   -0.001307691	    0.085470498	    0.012870791	    0.000312918	   -0.000376649	   -0.014252727	   -0.004323881
    0.000000000	    0.000000000	    0.000000000	    0.000000000	    0.000000000	    0.000000000	    0.000000000	    0.000000000
